%YAML 1.1
%TAG !u! tag:unity3d.com,2011:
--- !u!114 &11400000
MonoBehaviour:
  m_ObjectHideFlags: 0
  m_CorrespondingSourceObject: {fileID: 0}
  m_PrefabInstance: {fileID: 0}
  m_PrefabAsset: {fileID: 0}
  m_GameObject: {fileID: 0}
  m_Enabled: 1
  m_EditorHideFlags: 0
  m_Script: {fileID: 11500000, guid: c8d0c993cea077343a2a03eaaa39bbbc, type: 3}
  m_Name: AlienRobot
  m_EditorClassIdentifier: 
  icon: {fileID: 21300000, guid: 65d9b6d7bf219b74eba6a5dae8911f8a, type: 3}
  id: 7
  title: Alien Robot
  price: 100
  level: 0
  plusSpinnersPerSecond: 3000
  buttonPosY: 0
