-target:library
-out:"Library/Bee/artifacts/1300b0aEDbg.dag/GoogleMobileAds.dll"
-refout:"Library/Bee/artifacts/1300b0aEDbg.dag/GoogleMobileAds.ref.dll"
-define:UNITY_2021_1_0
-define:UNITY_2021_1
-define:UNITY_2021
-define:UNITY_5_3_OR_NEWER
-define:UNITY_5_4_OR_NEWER
-define:UNITY_5_5_OR_NEWER
-define:UNITY_5_6_OR_NEWER
-define:UNITY_2017_1_OR_NEWER
-define:UNITY_2017_2_OR_NEWER
-define:UNITY_2017_3_OR_NEWER
-define:UNITY_2017_4_OR_NEWER
-define:UNITY_2018_1_OR_NEWER
-define:UNITY_2018_2_OR_NEWER
-define:UNITY_2018_3_OR_NEWER
-define:UNITY_2018_4_OR_NEWER
-define:UNITY_2019_1_OR_NEWER
-define:UNITY_2019_2_OR_NEWER
-define:UNITY_2019_3_OR_NEWER
-define:UNITY_2019_4_OR_NEWER
-define:UNITY_2020_1_OR_NEWER
-define:UNITY_2020_2_OR_NEWER
-define:UNITY_2021_1_OR_NEWER
-define:UNITY_INCLUDE_TESTS
-define:USE_SEARCH_ENGINE_API
-define:USE_QUICK_SEARCH_MODULE
-define:SCENE_TEMPLATE_MODULE
-define:ENABLE_AR
-define:ENABLE_AUDIO
-define:ENABLE_CACHING
-define:ENABLE_CLOTH
-define:ENABLE_EVENT_QUEUE
-define:ENABLE_MICROPHONE
-define:ENABLE_MULTIPLE_DISPLAYS
-define:ENABLE_PHYSICS
-define:ENABLE_TEXTURE_STREAMING
-define:ENABLE_UNET
-define:ENABLE_LZMA
-define:ENABLE_UNITYEVENTS
-define:ENABLE_VR
-define:ENABLE_WEBCAM
-define:ENABLE_UNITYWEBREQUEST
-define:ENABLE_WWW
-define:ENABLE_CLOUD_SERVICES
-define:ENABLE_CLOUD_SERVICES_COLLAB
-define:ENABLE_CLOUD_SERVICES_COLLAB_SOFTLOCKS
-define:ENABLE_CLOUD_SERVICES_ADS
-define:ENABLE_CLOUD_SERVICES_USE_WEBREQUEST
-define:ENABLE_CLOUD_SERVICES_CRASH_REPORTING
-define:ENABLE_CLOUD_SERVICES_NATIVE_CRASH_REPORTING
-define:ENABLE_CLOUD_SERVICES_PURCHASING
-define:ENABLE_CLOUD_SERVICES_ANALYTICS
-define:ENABLE_CLOUD_SERVICES_UNET
-define:ENABLE_CLOUD_SERVICES_BUILD
-define:ENABLE_CLOUD_LICENSE
-define:ENABLE_EDITOR_HUB_LICENSE
-define:ENABLE_WEBSOCKET_CLIENT
-define:ENABLE_DIRECTOR_AUDIO
-define:ENABLE_DIRECTOR_TEXTURE
-define:ENABLE_MANAGED_JOBS
-define:ENABLE_MANAGED_TRANSFORM_JOBS
-define:ENABLE_MANAGED_ANIMATION_JOBS
-define:ENABLE_MANAGED_AUDIO_JOBS
-define:ENABLE_RUNTIME_PERMISSIONS
-define:ENABLE_ENGINE_CODE_STRIPPING
-define:ENABLE_ONSCREEN_KEYBOARD
-define:INCLUDE_DYNAMIC_GI
-define:ENABLE_MONO_BDWGC
-define:ENABLE_SCRIPTING_GC_WBARRIERS
-define:PLATFORM_SUPPORTS_MONO
-define:ENABLE_VIDEO
-define:PLATFORM_ANDROID
-define:UNITY_ANDROID
-define:UNITY_ANDROID_API
-define:ENABLE_EGL
-define:ENABLE_NETWORK
-define:ENABLE_RUNTIME_GI
-define:ENABLE_CRUNCH_TEXTURE_COMPRESSION
-define:UNITY_CAN_SHOW_SPLASH_SCREEN
-define:UNITY_HAS_GOOGLEVR
-define:UNITY_HAS_TANGO
-define:ENABLE_SPATIALTRACKING
-define:ENABLE_ETC_COMPRESSION
-define:PLATFORM_EXTENDS_VULKAN_DEVICE
-define:PLATFORM_HAS_MULTIPLE_SWAPCHAINS
-define:UNITY_ANDROID_SUPPORTS_SHADOWFILES
-define:PLATFORM_UPDATES_TIME_OUTSIDE_OF_PLAYER_LOOP
-define:ENABLE_UNITYADS_RUNTIME
-define:UNITY_UNITYADS_API
-define:ENABLE_MONO
-define:NET_STANDARD_2_0
-define:ENABLE_PROFILER
-define:DEBUG
-define:TRACE
-define:UNITY_ASSERTIONS
-define:UNITY_EDITOR
-define:UNITY_EDITOR_64
-define:UNITY_EDITOR_WIN
-define:ENABLE_UNITY_COLLECTIONS_CHECKS
-define:ENABLE_BURST_AOT
-define:UNITY_TEAM_LICENSE
-define:ENABLE_CUSTOM_RENDER_TEXTURE
-define:ENABLE_DIRECTOR
-define:ENABLE_LOCALIZATION
-define:ENABLE_SPRITES
-define:ENABLE_TERRAIN
-define:ENABLE_TILEMAP
-define:ENABLE_TIMELINE
-define:ENABLE_LEGACY_INPUT_MANAGER
-define:CSHARP_7_OR_LATER
-define:CSHARP_7_3_OR_NEWER
-r:"Assets/Plugins/Demigiant/DOTween/DOTween.dll"
-r:"Assets/Plugins/Demigiant/DOTween/Editor/DOTweenEditor.dll"
-r:"C:/Program Files/Unity/Hub/Editor/2021.1.0b3/Editor/Data/Managed/UnityEditor.Graphs.dll"
-r:"C:/Program Files/Unity/Hub/Editor/2021.1.0b3/Editor/Data/Managed/UnityEngine/UnityEditor.CoreModule.dll"
-r:"C:/Program Files/Unity/Hub/Editor/2021.1.0b3/Editor/Data/Managed/UnityEngine/UnityEditor.DeviceSimulatorModule.dll"
-r:"C:/Program Files/Unity/Hub/Editor/2021.1.0b3/Editor/Data/Managed/UnityEngine/UnityEditor.dll"
-r:"C:/Program Files/Unity/Hub/Editor/2021.1.0b3/Editor/Data/Managed/UnityEngine/UnityEditor.GraphViewModule.dll"
-r:"C:/Program Files/Unity/Hub/Editor/2021.1.0b3/Editor/Data/Managed/UnityEngine/UnityEditor.PackageManagerUIModule.dll"
-r:"C:/Program Files/Unity/Hub/Editor/2021.1.0b3/Editor/Data/Managed/UnityEngine/UnityEditor.QuickSearchModule.dll"
-r:"C:/Program Files/Unity/Hub/Editor/2021.1.0b3/Editor/Data/Managed/UnityEngine/UnityEditor.SceneTemplateModule.dll"
-r:"C:/Program Files/Unity/Hub/Editor/2021.1.0b3/Editor/Data/Managed/UnityEngine/UnityEditor.UIBuilderModule.dll"
-r:"C:/Program Files/Unity/Hub/Editor/2021.1.0b3/Editor/Data/Managed/UnityEngine/UnityEditor.UIElementsModule.dll"
-r:"C:/Program Files/Unity/Hub/Editor/2021.1.0b3/Editor/Data/Managed/UnityEngine/UnityEditor.UIElementsSamplesModule.dll"
-r:"C:/Program Files/Unity/Hub/Editor/2021.1.0b3/Editor/Data/Managed/UnityEngine/UnityEditor.UIServiceModule.dll"
-r:"C:/Program Files/Unity/Hub/Editor/2021.1.0b3/Editor/Data/Managed/UnityEngine/UnityEditor.UnityConnectModule.dll"
-r:"C:/Program Files/Unity/Hub/Editor/2021.1.0b3/Editor/Data/Managed/UnityEngine/UnityEngine.AccessibilityModule.dll"
-r:"C:/Program Files/Unity/Hub/Editor/2021.1.0b3/Editor/Data/Managed/UnityEngine/UnityEngine.AIModule.dll"
-r:"C:/Program Files/Unity/Hub/Editor/2021.1.0b3/Editor/Data/Managed/UnityEngine/UnityEngine.AndroidJNIModule.dll"
-r:"C:/Program Files/Unity/Hub/Editor/2021.1.0b3/Editor/Data/Managed/UnityEngine/UnityEngine.AnimationModule.dll"
-r:"C:/Program Files/Unity/Hub/Editor/2021.1.0b3/Editor/Data/Managed/UnityEngine/UnityEngine.ARModule.dll"
-r:"C:/Program Files/Unity/Hub/Editor/2021.1.0b3/Editor/Data/Managed/UnityEngine/UnityEngine.AssetBundleModule.dll"
-r:"C:/Program Files/Unity/Hub/Editor/2021.1.0b3/Editor/Data/Managed/UnityEngine/UnityEngine.AudioModule.dll"
-r:"C:/Program Files/Unity/Hub/Editor/2021.1.0b3/Editor/Data/Managed/UnityEngine/UnityEngine.ClothModule.dll"
-r:"C:/Program Files/Unity/Hub/Editor/2021.1.0b3/Editor/Data/Managed/UnityEngine/UnityEngine.CoreModule.dll"
-r:"C:/Program Files/Unity/Hub/Editor/2021.1.0b3/Editor/Data/Managed/UnityEngine/UnityEngine.CrashReportingModule.dll"
-r:"C:/Program Files/Unity/Hub/Editor/2021.1.0b3/Editor/Data/Managed/UnityEngine/UnityEngine.DirectorModule.dll"
-r:"C:/Program Files/Unity/Hub/Editor/2021.1.0b3/Editor/Data/Managed/UnityEngine/UnityEngine.dll"
-r:"C:/Program Files/Unity/Hub/Editor/2021.1.0b3/Editor/Data/Managed/UnityEngine/UnityEngine.DSPGraphModule.dll"
-r:"C:/Program Files/Unity/Hub/Editor/2021.1.0b3/Editor/Data/Managed/UnityEngine/UnityEngine.GameCenterModule.dll"
-r:"C:/Program Files/Unity/Hub/Editor/2021.1.0b3/Editor/Data/Managed/UnityEngine/UnityEngine.GIModule.dll"
-r:"C:/Program Files/Unity/Hub/Editor/2021.1.0b3/Editor/Data/Managed/UnityEngine/UnityEngine.GridModule.dll"
-r:"C:/Program Files/Unity/Hub/Editor/2021.1.0b3/Editor/Data/Managed/UnityEngine/UnityEngine.HotReloadModule.dll"
-r:"C:/Program Files/Unity/Hub/Editor/2021.1.0b3/Editor/Data/Managed/UnityEngine/UnityEngine.ImageConversionModule.dll"
-r:"C:/Program Files/Unity/Hub/Editor/2021.1.0b3/Editor/Data/Managed/UnityEngine/UnityEngine.IMGUIModule.dll"
-r:"C:/Program Files/Unity/Hub/Editor/2021.1.0b3/Editor/Data/Managed/UnityEngine/UnityEngine.InputLegacyModule.dll"
-r:"C:/Program Files/Unity/Hub/Editor/2021.1.0b3/Editor/Data/Managed/UnityEngine/UnityEngine.InputModule.dll"
-r:"C:/Program Files/Unity/Hub/Editor/2021.1.0b3/Editor/Data/Managed/UnityEngine/UnityEngine.JSONSerializeModule.dll"
-r:"C:/Program Files/Unity/Hub/Editor/2021.1.0b3/Editor/Data/Managed/UnityEngine/UnityEngine.LocalizationModule.dll"
-r:"C:/Program Files/Unity/Hub/Editor/2021.1.0b3/Editor/Data/Managed/UnityEngine/UnityEngine.ParticleSystemModule.dll"
-r:"C:/Program Files/Unity/Hub/Editor/2021.1.0b3/Editor/Data/Managed/UnityEngine/UnityEngine.PerformanceReportingModule.dll"
-r:"C:/Program Files/Unity/Hub/Editor/2021.1.0b3/Editor/Data/Managed/UnityEngine/UnityEngine.Physics2DModule.dll"
-r:"C:/Program Files/Unity/Hub/Editor/2021.1.0b3/Editor/Data/Managed/UnityEngine/UnityEngine.PhysicsModule.dll"
-r:"C:/Program Files/Unity/Hub/Editor/2021.1.0b3/Editor/Data/Managed/UnityEngine/UnityEngine.ProfilerModule.dll"
-r:"C:/Program Files/Unity/Hub/Editor/2021.1.0b3/Editor/Data/Managed/UnityEngine/UnityEngine.RuntimeInitializeOnLoadManagerInitializerModule.dll"
-r:"C:/Program Files/Unity/Hub/Editor/2021.1.0b3/Editor/Data/Managed/UnityEngine/UnityEngine.ScreenCaptureModule.dll"
-r:"C:/Program Files/Unity/Hub/Editor/2021.1.0b3/Editor/Data/Managed/UnityEngine/UnityEngine.SharedInternalsModule.dll"
-r:"C:/Program Files/Unity/Hub/Editor/2021.1.0b3/Editor/Data/Managed/UnityEngine/UnityEngine.SpriteMaskModule.dll"
-r:"C:/Program Files/Unity/Hub/Editor/2021.1.0b3/Editor/Data/Managed/UnityEngine/UnityEngine.SpriteShapeModule.dll"
-r:"C:/Program Files/Unity/Hub/Editor/2021.1.0b3/Editor/Data/Managed/UnityEngine/UnityEngine.StreamingModule.dll"
-r:"C:/Program Files/Unity/Hub/Editor/2021.1.0b3/Editor/Data/Managed/UnityEngine/UnityEngine.SubstanceModule.dll"
-r:"C:/Program Files/Unity/Hub/Editor/2021.1.0b3/Editor/Data/Managed/UnityEngine/UnityEngine.SubsystemsModule.dll"
-r:"C:/Program Files/Unity/Hub/Editor/2021.1.0b3/Editor/Data/Managed/UnityEngine/UnityEngine.TerrainModule.dll"
-r:"C:/Program Files/Unity/Hub/Editor/2021.1.0b3/Editor/Data/Managed/UnityEngine/UnityEngine.TerrainPhysicsModule.dll"
-r:"C:/Program Files/Unity/Hub/Editor/2021.1.0b3/Editor/Data/Managed/UnityEngine/UnityEngine.TextCoreModule.dll"
-r:"C:/Program Files/Unity/Hub/Editor/2021.1.0b3/Editor/Data/Managed/UnityEngine/UnityEngine.TextRenderingModule.dll"
-r:"C:/Program Files/Unity/Hub/Editor/2021.1.0b3/Editor/Data/Managed/UnityEngine/UnityEngine.TilemapModule.dll"
-r:"C:/Program Files/Unity/Hub/Editor/2021.1.0b3/Editor/Data/Managed/UnityEngine/UnityEngine.TLSModule.dll"
-r:"C:/Program Files/Unity/Hub/Editor/2021.1.0b3/Editor/Data/Managed/UnityEngine/UnityEngine.UIElementsModule.dll"
-r:"C:/Program Files/Unity/Hub/Editor/2021.1.0b3/Editor/Data/Managed/UnityEngine/UnityEngine.UIElementsNativeModule.dll"
-r:"C:/Program Files/Unity/Hub/Editor/2021.1.0b3/Editor/Data/Managed/UnityEngine/UnityEngine.UIModule.dll"
-r:"C:/Program Files/Unity/Hub/Editor/2021.1.0b3/Editor/Data/Managed/UnityEngine/UnityEngine.UmbraModule.dll"
-r:"C:/Program Files/Unity/Hub/Editor/2021.1.0b3/Editor/Data/Managed/UnityEngine/UnityEngine.UNETModule.dll"
-r:"C:/Program Files/Unity/Hub/Editor/2021.1.0b3/Editor/Data/Managed/UnityEngine/UnityEngine.UnityAnalyticsModule.dll"
-r:"C:/Program Files/Unity/Hub/Editor/2021.1.0b3/Editor/Data/Managed/UnityEngine/UnityEngine.UnityConnectModule.dll"
-r:"C:/Program Files/Unity/Hub/Editor/2021.1.0b3/Editor/Data/Managed/UnityEngine/UnityEngine.UnityCurlModule.dll"
-r:"C:/Program Files/Unity/Hub/Editor/2021.1.0b3/Editor/Data/Managed/UnityEngine/UnityEngine.UnityTestProtocolModule.dll"
-r:"C:/Program Files/Unity/Hub/Editor/2021.1.0b3/Editor/Data/Managed/UnityEngine/UnityEngine.UnityWebRequestAssetBundleModule.dll"
-r:"C:/Program Files/Unity/Hub/Editor/2021.1.0b3/Editor/Data/Managed/UnityEngine/UnityEngine.UnityWebRequestAudioModule.dll"
-r:"C:/Program Files/Unity/Hub/Editor/2021.1.0b3/Editor/Data/Managed/UnityEngine/UnityEngine.UnityWebRequestModule.dll"
-r:"C:/Program Files/Unity/Hub/Editor/2021.1.0b3/Editor/Data/Managed/UnityEngine/UnityEngine.UnityWebRequestTextureModule.dll"
-r:"C:/Program Files/Unity/Hub/Editor/2021.1.0b3/Editor/Data/Managed/UnityEngine/UnityEngine.UnityWebRequestWWWModule.dll"
-r:"C:/Program Files/Unity/Hub/Editor/2021.1.0b3/Editor/Data/Managed/UnityEngine/UnityEngine.VehiclesModule.dll"
-r:"C:/Program Files/Unity/Hub/Editor/2021.1.0b3/Editor/Data/Managed/UnityEngine/UnityEngine.VFXModule.dll"
-r:"C:/Program Files/Unity/Hub/Editor/2021.1.0b3/Editor/Data/Managed/UnityEngine/UnityEngine.VideoModule.dll"
-r:"C:/Program Files/Unity/Hub/Editor/2021.1.0b3/Editor/Data/Managed/UnityEngine/UnityEngine.VRModule.dll"
-r:"C:/Program Files/Unity/Hub/Editor/2021.1.0b3/Editor/Data/Managed/UnityEngine/UnityEngine.WindModule.dll"
-r:"C:/Program Files/Unity/Hub/Editor/2021.1.0b3/Editor/Data/Managed/UnityEngine/UnityEngine.XRModule.dll"
-r:"C:/Program Files/Unity/Hub/Editor/2021.1.0b3/Editor/Data/NetStandard/compat/2.0.0/shims/netfx/mscorlib.dll"
-r:"C:/Program Files/Unity/Hub/Editor/2021.1.0b3/Editor/Data/NetStandard/compat/2.0.0/shims/netfx/System.ComponentModel.Composition.dll"
-r:"C:/Program Files/Unity/Hub/Editor/2021.1.0b3/Editor/Data/NetStandard/compat/2.0.0/shims/netfx/System.Core.dll"
-r:"C:/Program Files/Unity/Hub/Editor/2021.1.0b3/Editor/Data/NetStandard/compat/2.0.0/shims/netfx/System.Data.dll"
-r:"C:/Program Files/Unity/Hub/Editor/2021.1.0b3/Editor/Data/NetStandard/compat/2.0.0/shims/netfx/System.dll"
-r:"C:/Program Files/Unity/Hub/Editor/2021.1.0b3/Editor/Data/NetStandard/compat/2.0.0/shims/netfx/System.Drawing.dll"
-r:"C:/Program Files/Unity/Hub/Editor/2021.1.0b3/Editor/Data/NetStandard/compat/2.0.0/shims/netfx/System.IO.Compression.FileSystem.dll"
-r:"C:/Program Files/Unity/Hub/Editor/2021.1.0b3/Editor/Data/NetStandard/compat/2.0.0/shims/netfx/System.Net.dll"
-r:"C:/Program Files/Unity/Hub/Editor/2021.1.0b3/Editor/Data/NetStandard/compat/2.0.0/shims/netfx/System.Numerics.dll"
-r:"C:/Program Files/Unity/Hub/Editor/2021.1.0b3/Editor/Data/NetStandard/compat/2.0.0/shims/netfx/System.Runtime.Serialization.dll"
-r:"C:/Program Files/Unity/Hub/Editor/2021.1.0b3/Editor/Data/NetStandard/compat/2.0.0/shims/netfx/System.ServiceModel.Web.dll"
-r:"C:/Program Files/Unity/Hub/Editor/2021.1.0b3/Editor/Data/NetStandard/compat/2.0.0/shims/netfx/System.Transactions.dll"
-r:"C:/Program Files/Unity/Hub/Editor/2021.1.0b3/Editor/Data/NetStandard/compat/2.0.0/shims/netfx/System.Web.dll"
-r:"C:/Program Files/Unity/Hub/Editor/2021.1.0b3/Editor/Data/NetStandard/compat/2.0.0/shims/netfx/System.Windows.dll"
-r:"C:/Program Files/Unity/Hub/Editor/2021.1.0b3/Editor/Data/NetStandard/compat/2.0.0/shims/netfx/System.Xml.dll"
-r:"C:/Program Files/Unity/Hub/Editor/2021.1.0b3/Editor/Data/NetStandard/compat/2.0.0/shims/netfx/System.Xml.Linq.dll"
-r:"C:/Program Files/Unity/Hub/Editor/2021.1.0b3/Editor/Data/NetStandard/compat/2.0.0/shims/netfx/System.Xml.Serialization.dll"
-r:"C:/Program Files/Unity/Hub/Editor/2021.1.0b3/Editor/Data/NetStandard/compat/2.0.0/shims/netstandard/Microsoft.Win32.Primitives.dll"
-r:"C:/Program Files/Unity/Hub/Editor/2021.1.0b3/Editor/Data/NetStandard/compat/2.0.0/shims/netstandard/System.AppContext.dll"
-r:"C:/Program Files/Unity/Hub/Editor/2021.1.0b3/Editor/Data/NetStandard/compat/2.0.0/shims/netstandard/System.Collections.Concurrent.dll"
-r:"C:/Program Files/Unity/Hub/Editor/2021.1.0b3/Editor/Data/NetStandard/compat/2.0.0/shims/netstandard/System.Collections.dll"
-r:"C:/Program Files/Unity/Hub/Editor/2021.1.0b3/Editor/Data/NetStandard/compat/2.0.0/shims/netstandard/System.Collections.NonGeneric.dll"
-r:"C:/Program Files/Unity/Hub/Editor/2021.1.0b3/Editor/Data/NetStandard/compat/2.0.0/shims/netstandard/System.Collections.Specialized.dll"
-r:"C:/Program Files/Unity/Hub/Editor/2021.1.0b3/Editor/Data/NetStandard/compat/2.0.0/shims/netstandard/System.ComponentModel.dll"
-r:"C:/Program Files/Unity/Hub/Editor/2021.1.0b3/Editor/Data/NetStandard/compat/2.0.0/shims/netstandard/System.ComponentModel.EventBasedAsync.dll"
-r:"C:/Program Files/Unity/Hub/Editor/2021.1.0b3/Editor/Data/NetStandard/compat/2.0.0/shims/netstandard/System.ComponentModel.Primitives.dll"
-r:"C:/Program Files/Unity/Hub/Editor/2021.1.0b3/Editor/Data/NetStandard/compat/2.0.0/shims/netstandard/System.ComponentModel.TypeConverter.dll"
-r:"C:/Program Files/Unity/Hub/Editor/2021.1.0b3/Editor/Data/NetStandard/compat/2.0.0/shims/netstandard/System.Console.dll"
-r:"C:/Program Files/Unity/Hub/Editor/2021.1.0b3/Editor/Data/NetStandard/compat/2.0.0/shims/netstandard/System.Data.Common.dll"
-r:"C:/Program Files/Unity/Hub/Editor/2021.1.0b3/Editor/Data/NetStandard/compat/2.0.0/shims/netstandard/System.Diagnostics.Contracts.dll"
-r:"C:/Program Files/Unity/Hub/Editor/2021.1.0b3/Editor/Data/NetStandard/compat/2.0.0/shims/netstandard/System.Diagnostics.Debug.dll"
-r:"C:/Program Files/Unity/Hub/Editor/2021.1.0b3/Editor/Data/NetStandard/compat/2.0.0/shims/netstandard/System.Diagnostics.FileVersionInfo.dll"
-r:"C:/Program Files/Unity/Hub/Editor/2021.1.0b3/Editor/Data/NetStandard/compat/2.0.0/shims/netstandard/System.Diagnostics.Process.dll"
-r:"C:/Program Files/Unity/Hub/Editor/2021.1.0b3/Editor/Data/NetStandard/compat/2.0.0/shims/netstandard/System.Diagnostics.StackTrace.dll"
-r:"C:/Program Files/Unity/Hub/Editor/2021.1.0b3/Editor/Data/NetStandard/compat/2.0.0/shims/netstandard/System.Diagnostics.TextWriterTraceListener.dll"
-r:"C:/Program Files/Unity/Hub/Editor/2021.1.0b3/Editor/Data/NetStandard/compat/2.0.0/shims/netstandard/System.Diagnostics.Tools.dll"
-r:"C:/Program Files/Unity/Hub/Editor/2021.1.0b3/Editor/Data/NetStandard/compat/2.0.0/shims/netstandard/System.Diagnostics.TraceSource.dll"
-r:"C:/Program Files/Unity/Hub/Editor/2021.1.0b3/Editor/Data/NetStandard/compat/2.0.0/shims/netstandard/System.Diagnostics.Tracing.dll"
-r:"C:/Program Files/Unity/Hub/Editor/2021.1.0b3/Editor/Data/NetStandard/compat/2.0.0/shims/netstandard/System.Drawing.Primitives.dll"
-r:"C:/Program Files/Unity/Hub/Editor/2021.1.0b3/Editor/Data/NetStandard/compat/2.0.0/shims/netstandard/System.Dynamic.Runtime.dll"
-r:"C:/Program Files/Unity/Hub/Editor/2021.1.0b3/Editor/Data/NetStandard/compat/2.0.0/shims/netstandard/System.Globalization.Calendars.dll"
-r:"C:/Program Files/Unity/Hub/Editor/2021.1.0b3/Editor/Data/NetStandard/compat/2.0.0/shims/netstandard/System.Globalization.dll"
-r:"C:/Program Files/Unity/Hub/Editor/2021.1.0b3/Editor/Data/NetStandard/compat/2.0.0/shims/netstandard/System.Globalization.Extensions.dll"
-r:"C:/Program Files/Unity/Hub/Editor/2021.1.0b3/Editor/Data/NetStandard/compat/2.0.0/shims/netstandard/System.IO.Compression.dll"
-r:"C:/Program Files/Unity/Hub/Editor/2021.1.0b3/Editor/Data/NetStandard/compat/2.0.0/shims/netstandard/System.IO.Compression.ZipFile.dll"
-r:"C:/Program Files/Unity/Hub/Editor/2021.1.0b3/Editor/Data/NetStandard/compat/2.0.0/shims/netstandard/System.IO.dll"
-r:"C:/Program Files/Unity/Hub/Editor/2021.1.0b3/Editor/Data/NetStandard/compat/2.0.0/shims/netstandard/System.IO.FileSystem.dll"
-r:"C:/Program Files/Unity/Hub/Editor/2021.1.0b3/Editor/Data/NetStandard/compat/2.0.0/shims/netstandard/System.IO.FileSystem.DriveInfo.dll"
-r:"C:/Program Files/Unity/Hub/Editor/2021.1.0b3/Editor/Data/NetStandard/compat/2.0.0/shims/netstandard/System.IO.FileSystem.Primitives.dll"
-r:"C:/Program Files/Unity/Hub/Editor/2021.1.0b3/Editor/Data/NetStandard/compat/2.0.0/shims/netstandard/System.IO.FileSystem.Watcher.dll"
-r:"C:/Program Files/Unity/Hub/Editor/2021.1.0b3/Editor/Data/NetStandard/compat/2.0.0/shims/netstandard/System.IO.IsolatedStorage.dll"
-r:"C:/Program Files/Unity/Hub/Editor/2021.1.0b3/Editor/Data/NetStandard/compat/2.0.0/shims/netstandard/System.IO.MemoryMappedFiles.dll"
-r:"C:/Program Files/Unity/Hub/Editor/2021.1.0b3/Editor/Data/NetStandard/compat/2.0.0/shims/netstandard/System.IO.Pipes.dll"
-r:"C:/Program Files/Unity/Hub/Editor/2021.1.0b3/Editor/Data/NetStandard/compat/2.0.0/shims/netstandard/System.IO.UnmanagedMemoryStream.dll"
-r:"C:/Program Files/Unity/Hub/Editor/2021.1.0b3/Editor/Data/NetStandard/compat/2.0.0/shims/netstandard/System.Linq.dll"
-r:"C:/Program Files/Unity/Hub/Editor/2021.1.0b3/Editor/Data/NetStandard/compat/2.0.0/shims/netstandard/System.Linq.Expressions.dll"
-r:"C:/Program Files/Unity/Hub/Editor/2021.1.0b3/Editor/Data/NetStandard/compat/2.0.0/shims/netstandard/System.Linq.Parallel.dll"
-r:"C:/Program Files/Unity/Hub/Editor/2021.1.0b3/Editor/Data/NetStandard/compat/2.0.0/shims/netstandard/System.Linq.Queryable.dll"
-r:"C:/Program Files/Unity/Hub/Editor/2021.1.0b3/Editor/Data/NetStandard/compat/2.0.0/shims/netstandard/System.Net.Http.dll"
-r:"C:/Program Files/Unity/Hub/Editor/2021.1.0b3/Editor/Data/NetStandard/compat/2.0.0/shims/netstandard/System.Net.NameResolution.dll"
-r:"C:/Program Files/Unity/Hub/Editor/2021.1.0b3/Editor/Data/NetStandard/compat/2.0.0/shims/netstandard/System.Net.NetworkInformation.dll"
-r:"C:/Program Files/Unity/Hub/Editor/2021.1.0b3/Editor/Data/NetStandard/compat/2.0.0/shims/netstandard/System.Net.Ping.dll"
-r:"C:/Program Files/Unity/Hub/Editor/2021.1.0b3/Editor/Data/NetStandard/compat/2.0.0/shims/netstandard/System.Net.Primitives.dll"
-r:"C:/Program Files/Unity/Hub/Editor/2021.1.0b3/Editor/Data/NetStandard/compat/2.0.0/shims/netstandard/System.Net.Requests.dll"
-r:"C:/Program Files/Unity/Hub/Editor/2021.1.0b3/Editor/Data/NetStandard/compat/2.0.0/shims/netstandard/System.Net.Security.dll"
-r:"C:/Program Files/Unity/Hub/Editor/2021.1.0b3/Editor/Data/NetStandard/compat/2.0.0/shims/netstandard/System.Net.Sockets.dll"
-r:"C:/Program Files/Unity/Hub/Editor/2021.1.0b3/Editor/Data/NetStandard/compat/2.0.0/shims/netstandard/System.Net.WebHeaderCollection.dll"
-r:"C:/Program Files/Unity/Hub/Editor/2021.1.0b3/Editor/Data/NetStandard/compat/2.0.0/shims/netstandard/System.Net.WebSockets.Client.dll"
-r:"C:/Program Files/Unity/Hub/Editor/2021.1.0b3/Editor/Data/NetStandard/compat/2.0.0/shims/netstandard/System.Net.WebSockets.dll"
-r:"C:/Program Files/Unity/Hub/Editor/2021.1.0b3/Editor/Data/NetStandard/compat/2.0.0/shims/netstandard/System.ObjectModel.dll"
-r:"C:/Program Files/Unity/Hub/Editor/2021.1.0b3/Editor/Data/NetStandard/compat/2.0.0/shims/netstandard/System.Reflection.dll"
-r:"C:/Program Files/Unity/Hub/Editor/2021.1.0b3/Editor/Data/NetStandard/compat/2.0.0/shims/netstandard/System.Reflection.Extensions.dll"
-r:"C:/Program Files/Unity/Hub/Editor/2021.1.0b3/Editor/Data/NetStandard/compat/2.0.0/shims/netstandard/System.Reflection.Primitives.dll"
-r:"C:/Program Files/Unity/Hub/Editor/2021.1.0b3/Editor/Data/NetStandard/compat/2.0.0/shims/netstandard/System.Resources.Reader.dll"
-r:"C:/Program Files/Unity/Hub/Editor/2021.1.0b3/Editor/Data/NetStandard/compat/2.0.0/shims/netstandard/System.Resources.ResourceManager.dll"
-r:"C:/Program Files/Unity/Hub/Editor/2021.1.0b3/Editor/Data/NetStandard/compat/2.0.0/shims/netstandard/System.Resources.Writer.dll"
-r:"C:/Program Files/Unity/Hub/Editor/2021.1.0b3/Editor/Data/NetStandard/compat/2.0.0/shims/netstandard/System.Runtime.CompilerServices.VisualC.dll"
-r:"C:/Program Files/Unity/Hub/Editor/2021.1.0b3/Editor/Data/NetStandard/compat/2.0.0/shims/netstandard/System.Runtime.dll"
-r:"C:/Program Files/Unity/Hub/Editor/2021.1.0b3/Editor/Data/NetStandard/compat/2.0.0/shims/netstandard/System.Runtime.Extensions.dll"
-r:"C:/Program Files/Unity/Hub/Editor/2021.1.0b3/Editor/Data/NetStandard/compat/2.0.0/shims/netstandard/System.Runtime.Handles.dll"
-r:"C:/Program Files/Unity/Hub/Editor/2021.1.0b3/Editor/Data/NetStandard/compat/2.0.0/shims/netstandard/System.Runtime.InteropServices.dll"
-r:"C:/Program Files/Unity/Hub/Editor/2021.1.0b3/Editor/Data/NetStandard/compat/2.0.0/shims/netstandard/System.Runtime.InteropServices.RuntimeInformation.dll"
-r:"C:/Program Files/Unity/Hub/Editor/2021.1.0b3/Editor/Data/NetStandard/compat/2.0.0/shims/netstandard/System.Runtime.Numerics.dll"
-r:"C:/Program Files/Unity/Hub/Editor/2021.1.0b3/Editor/Data/NetStandard/compat/2.0.0/shims/netstandard/System.Runtime.Serialization.Formatters.dll"
-r:"C:/Program Files/Unity/Hub/Editor/2021.1.0b3/Editor/Data/NetStandard/compat/2.0.0/shims/netstandard/System.Runtime.Serialization.Json.dll"
-r:"C:/Program Files/Unity/Hub/Editor/2021.1.0b3/Editor/Data/NetStandard/compat/2.0.0/shims/netstandard/System.Runtime.Serialization.Primitives.dll"
-r:"C:/Program Files/Unity/Hub/Editor/2021.1.0b3/Editor/Data/NetStandard/compat/2.0.0/shims/netstandard/System.Runtime.Serialization.Xml.dll"
-r:"C:/Program Files/Unity/Hub/Editor/2021.1.0b3/Editor/Data/NetStandard/compat/2.0.0/shims/netstandard/System.Security.Claims.dll"
-r:"C:/Program Files/Unity/Hub/Editor/2021.1.0b3/Editor/Data/NetStandard/compat/2.0.0/shims/netstandard/System.Security.Cryptography.Algorithms.dll"
-r:"C:/Program Files/Unity/Hub/Editor/2021.1.0b3/Editor/Data/NetStandard/compat/2.0.0/shims/netstandard/System.Security.Cryptography.Csp.dll"
-r:"C:/Program Files/Unity/Hub/Editor/2021.1.0b3/Editor/Data/NetStandard/compat/2.0.0/shims/netstandard/System.Security.Cryptography.Encoding.dll"
-r:"C:/Program Files/Unity/Hub/Editor/2021.1.0b3/Editor/Data/NetStandard/compat/2.0.0/shims/netstandard/System.Security.Cryptography.Primitives.dll"
-r:"C:/Program Files/Unity/Hub/Editor/2021.1.0b3/Editor/Data/NetStandard/compat/2.0.0/shims/netstandard/System.Security.Cryptography.X509Certificates.dll"
-r:"C:/Program Files/Unity/Hub/Editor/2021.1.0b3/Editor/Data/NetStandard/compat/2.0.0/shims/netstandard/System.Security.Principal.dll"
-r:"C:/Program Files/Unity/Hub/Editor/2021.1.0b3/Editor/Data/NetStandard/compat/2.0.0/shims/netstandard/System.Security.SecureString.dll"
-r:"C:/Program Files/Unity/Hub/Editor/2021.1.0b3/Editor/Data/NetStandard/compat/2.0.0/shims/netstandard/System.Text.Encoding.dll"
-r:"C:/Program Files/Unity/Hub/Editor/2021.1.0b3/Editor/Data/NetStandard/compat/2.0.0/shims/netstandard/System.Text.Encoding.Extensions.dll"
-r:"C:/Program Files/Unity/Hub/Editor/2021.1.0b3/Editor/Data/NetStandard/compat/2.0.0/shims/netstandard/System.Text.RegularExpressions.dll"
-r:"C:/Program Files/Unity/Hub/Editor/2021.1.0b3/Editor/Data/NetStandard/compat/2.0.0/shims/netstandard/System.Threading.dll"
-r:"C:/Program Files/Unity/Hub/Editor/2021.1.0b3/Editor/Data/NetStandard/compat/2.0.0/shims/netstandard/System.Threading.Overlapped.dll"
-r:"C:/Program Files/Unity/Hub/Editor/2021.1.0b3/Editor/Data/NetStandard/compat/2.0.0/shims/netstandard/System.Threading.Tasks.dll"
-r:"C:/Program Files/Unity/Hub/Editor/2021.1.0b3/Editor/Data/NetStandard/compat/2.0.0/shims/netstandard/System.Threading.Tasks.Parallel.dll"
-r:"C:/Program Files/Unity/Hub/Editor/2021.1.0b3/Editor/Data/NetStandard/compat/2.0.0/shims/netstandard/System.Threading.Thread.dll"
-r:"C:/Program Files/Unity/Hub/Editor/2021.1.0b3/Editor/Data/NetStandard/compat/2.0.0/shims/netstandard/System.Threading.ThreadPool.dll"
-r:"C:/Program Files/Unity/Hub/Editor/2021.1.0b3/Editor/Data/NetStandard/compat/2.0.0/shims/netstandard/System.Threading.Timer.dll"
-r:"C:/Program Files/Unity/Hub/Editor/2021.1.0b3/Editor/Data/NetStandard/compat/2.0.0/shims/netstandard/System.ValueTuple.dll"
-r:"C:/Program Files/Unity/Hub/Editor/2021.1.0b3/Editor/Data/NetStandard/compat/2.0.0/shims/netstandard/System.Xml.ReaderWriter.dll"
-r:"C:/Program Files/Unity/Hub/Editor/2021.1.0b3/Editor/Data/NetStandard/compat/2.0.0/shims/netstandard/System.Xml.XDocument.dll"
-r:"C:/Program Files/Unity/Hub/Editor/2021.1.0b3/Editor/Data/NetStandard/compat/2.0.0/shims/netstandard/System.Xml.XmlDocument.dll"
-r:"C:/Program Files/Unity/Hub/Editor/2021.1.0b3/Editor/Data/NetStandard/compat/2.0.0/shims/netstandard/System.Xml.XmlSerializer.dll"
-r:"C:/Program Files/Unity/Hub/Editor/2021.1.0b3/Editor/Data/NetStandard/compat/2.0.0/shims/netstandard/System.Xml.XPath.dll"
-r:"C:/Program Files/Unity/Hub/Editor/2021.1.0b3/Editor/Data/NetStandard/compat/2.0.0/shims/netstandard/System.Xml.XPath.XDocument.dll"
-r:"C:/Program Files/Unity/Hub/Editor/2021.1.0b3/Editor/Data/NetStandard/Extensions/2.0.0/System.Numerics.Vectors.dll"
-r:"C:/Program Files/Unity/Hub/Editor/2021.1.0b3/Editor/Data/NetStandard/Extensions/2.0.0/System.Runtime.InteropServices.WindowsRuntime.dll"
-r:"C:/Program Files/Unity/Hub/Editor/2021.1.0b3/Editor/Data/NetStandard/ref/2.0.0/netstandard.dll"
-r:"C:/Program Files/Unity/Hub/Editor/2021.1.0b3/Editor/Data/PlaybackEngines/AndroidPlayer/UnityEditor.Android.Extensions.dll"
-r:"C:/Program Files/Unity/Hub/Editor/2021.1.0b3/Editor/Data/PlaybackEngines/WindowsStandaloneSupport/UnityEditor.WindowsStandalone.Extensions.dll"
-r:"D:/UnityProjects/SpinnerClicker/Library/PackageCache/com.google.external-dependency-manager@1.2.163/ExternalDependencyManager/Editor/Google.IOSResolver_v1.2.163.dll"
-r:"D:/UnityProjects/SpinnerClicker/Library/PackageCache/com.google.external-dependency-manager@1.2.163/ExternalDependencyManager/Editor/Google.JarResolver_v1.2.163.dll"
-r:"D:/UnityProjects/SpinnerClicker/Library/PackageCache/com.google.external-dependency-manager@1.2.163/ExternalDependencyManager/Editor/Google.PackageManagerResolver_v1.2.163.dll"
-r:"D:/UnityProjects/SpinnerClicker/Library/PackageCache/com.google.external-dependency-manager@1.2.163/ExternalDependencyManager/Editor/Google.VersionHandler.dll"
-r:"D:/UnityProjects/SpinnerClicker/Library/PackageCache/com.google.external-dependency-manager@1.2.163/ExternalDependencyManager/Editor/Google.VersionHandlerImpl_v1.2.163.dll"
-r:"D:/UnityProjects/SpinnerClicker/Library/PackageCache/com.unity.connect.share@4.1.1/Plugins/System.IO.Compression.FileSystem.dll"
-r:"D:/UnityProjects/SpinnerClicker/Library/PackageCache/com.unity.ext.nunit@1.0.5/net35/unity-custom/nunit.framework.dll"
-r:"Library/Bee/artifacts/1300b0aEDbg.dag/UnityEditor.UI.ref.dll"
-r:"Library/Bee/artifacts/1300b0aEDbg.dag/UnityEngine.UI.ref.dll"
"Assets/GoogleMobileAds/Api/AdLoader.cs"
"Assets/GoogleMobileAds/Api/BannerView.cs"
"Assets/GoogleMobileAds/Api/Core/AdapterStatus.cs"
"Assets/GoogleMobileAds/Api/Core/AdErrorEventArgs.cs"
"Assets/GoogleMobileAds/Api/Core/AdFailedToLoadEventArgs.cs"
"Assets/GoogleMobileAds/Api/Core/AdPosition.cs"
"Assets/GoogleMobileAds/Api/Core/AdRequest.cs"
"Assets/GoogleMobileAds/Api/Core/AdSize.cs"
"Assets/GoogleMobileAds/Api/Core/AdValue.cs"
"Assets/GoogleMobileAds/Api/Core/AdValueEventArgs.cs"
"Assets/GoogleMobileAds/Api/Core/Gender.cs"
"Assets/GoogleMobileAds/Api/Core/MaxAdContentRating.cs"
"Assets/GoogleMobileAds/Api/Core/NativeAdType.cs"
"Assets/GoogleMobileAds/Api/Core/RequestConfiguration.cs"
"Assets/GoogleMobileAds/Api/Core/Reward.cs"
"Assets/GoogleMobileAds/Api/Core/ServerSideVerificationOptions.cs"
"Assets/GoogleMobileAds/Api/Core/TagForChildDirectedTreatment.cs"
"Assets/GoogleMobileAds/Api/Core/TagForUnderAgeOfConsent.cs"
"Assets/GoogleMobileAds/Api/CustomNativeEventArgs.cs"
"Assets/GoogleMobileAds/Api/CustomNativeTemplateAd.cs"
"Assets/GoogleMobileAds/Api/InitializationStatus.cs"
"Assets/GoogleMobileAds/Api/InterstitialAd.cs"
"Assets/GoogleMobileAds/Api/Mediation/MediationExtras.cs"
"Assets/GoogleMobileAds/Api/MobileAds.cs"
"Assets/GoogleMobileAds/Api/ResponseInfo.cs"
"Assets/GoogleMobileAds/Api/RewardBasedVideoAd.cs"
"Assets/GoogleMobileAds/Api/RewardedAd.cs"
"Assets/GoogleMobileAds/Api/RewardedInterstitialAd.cs"
"Assets/GoogleMobileAds/Common/AdLoaderClientArgs.cs"
"Assets/GoogleMobileAds/Common/CustomNativeClientEventArgs.cs"
"Assets/GoogleMobileAds/Common/DummyClient.cs"
"Assets/GoogleMobileAds/Common/IAdLoaderClient.cs"
"Assets/GoogleMobileAds/Common/IBannerClient.cs"
"Assets/GoogleMobileAds/Common/IClientFactory.cs"
"Assets/GoogleMobileAds/Common/ICustomNativeTemplateClient.cs"
"Assets/GoogleMobileAds/Common/IInitializationStatusClient.cs"
"Assets/GoogleMobileAds/Common/IInterstitialClient.cs"
"Assets/GoogleMobileAds/Common/IMobileAdsClient.cs"
"Assets/GoogleMobileAds/Common/IResponseInfoClient.cs"
"Assets/GoogleMobileAds/Common/IRewardBasedVideoAdClient.cs"
"Assets/GoogleMobileAds/Common/IRewardedAdClient.cs"
"Assets/GoogleMobileAds/Common/IRewardedInterstitialAdClient.cs"
"Assets/GoogleMobileAds/Common/MobileAdsEventExecutor.cs"
"Assets/GoogleMobileAds/Common/RewardedAdDummyClient.cs"
"Assets/GoogleMobileAds/Common/RewardedInterstitialAdDummyClient.cs"
"Assets/GoogleMobileAds/Common/Utils.cs"
"Assets/GoogleMobileAds/Platforms/Android/AdLoaderClient.cs"
"Assets/GoogleMobileAds/Platforms/Android/BannerClient.cs"
"Assets/GoogleMobileAds/Platforms/Android/CustomNativeTemplateClient.cs"
"Assets/GoogleMobileAds/Platforms/Android/DisplayMetrics.cs"
"Assets/GoogleMobileAds/Platforms/Android/InitializationStatusClient.cs"
"Assets/GoogleMobileAds/Platforms/Android/InterstitialClient.cs"
"Assets/GoogleMobileAds/Platforms/Android/MobileAdsClient.cs"
"Assets/GoogleMobileAds/Platforms/Android/RequestConfigurationClient.cs"
"Assets/GoogleMobileAds/Platforms/Android/ResponseInfoClient.cs"
"Assets/GoogleMobileAds/Platforms/Android/RewardBasedVideoAdClient.cs"
"Assets/GoogleMobileAds/Platforms/Android/RewardedAdClient.cs"
"Assets/GoogleMobileAds/Platforms/Android/RewardedInterstitialAdClient.cs"
"Assets/GoogleMobileAds/Platforms/Android/Utils.cs"
"Assets/GoogleMobileAds/Platforms/GoogleMobileAdsClientFactory.cs"
"Assets/GoogleMobileAds/Platforms/iOS/AdLoaderClient.cs"
"Assets/GoogleMobileAds/Platforms/iOS/BannerClient.cs"
"Assets/GoogleMobileAds/Platforms/iOS/CustomNativeTemplateClient.cs"
"Assets/GoogleMobileAds/Platforms/iOS/Externs.cs"
"Assets/GoogleMobileAds/Platforms/iOS/GoogleMobileAdsClientFactory.cs"
"Assets/GoogleMobileAds/Platforms/iOS/InitializationStatusClient.cs"
"Assets/GoogleMobileAds/Platforms/iOS/InterstitialClient.cs"
"Assets/GoogleMobileAds/Platforms/iOS/MobileAdsClient.cs"
"Assets/GoogleMobileAds/Platforms/iOS/MonoPInvokeCallbackAttribute.cs"
"Assets/GoogleMobileAds/Platforms/iOS/RequestConfigurationClient.cs"
"Assets/GoogleMobileAds/Platforms/iOS/ResponseInfoClient.cs"
"Assets/GoogleMobileAds/Platforms/iOS/RewardBasedVideoAdClient.cs"
"Assets/GoogleMobileAds/Platforms/iOS/RewardedAdClient.cs"
"Assets/GoogleMobileAds/Platforms/iOS/RewardedInterstitialAdClient.cs"
"Assets/GoogleMobileAds/Platforms/iOS/Utils.cs"
"Assets/GoogleMobileAds/Platforms/Unity/BannerClient.cs"
"Assets/GoogleMobileAds/Platforms/Unity/BaseAdDummyClient.cs"
"Assets/GoogleMobileAds/Platforms/Unity/ButtonBehaviour.cs"
"Assets/GoogleMobileAds/Platforms/Unity/Countdown.cs"
"Assets/GoogleMobileAds/Platforms/Unity/DummyAdBehaviour.cs"
"Assets/GoogleMobileAds/Platforms/Unity/InitializationStatusDummyClient.cs"
"Assets/GoogleMobileAds/Platforms/Unity/InterstitialClient.cs"
"Assets/GoogleMobileAds/Platforms/Unity/ResponseInfoDummyClient.cs"
"Assets/GoogleMobileAds/Platforms/Unity/RewardedAdClient.cs"
"Assets/GoogleMobileAds/Platforms/Unity/RewardedInterstitialAdClient.cs"
"Assets/GoogleMobileAds/Platforms/Unity/RewardingAdBaseClient.cs"
-langversion:8.0

/deterministic
/optimize-
/debug:portable
/nologo
/RuntimeMetadataVersion:v4.0.30319

/nowarn:0169
/nowarn:0649
/utf8output
/preferreduilang:en-US
